Differential abundance test — amp_diffabund • ampvis2extras
…
# Or show raw results
results$Clean_results

#> # A tibble: 810 × 5
#> # Groups:   Taxonomy, padj [810]
#>    Taxonomy                        padj Log2FC Aalborg_East Aalborg_West
#>    <chr>                          <dbl>  <dbl>        <dbl>        <dbl>
#>  1 o__AKYG1722_OTU_154          8.6e-83   11          0.001        2.73 
#>  2 f__Microbacteriaceae_OTU_640 2.1e-34   -3          0.178        0.015
#>  3 Actinomyces                  2.6e-33   -1.8        0.734        0.146
#>  4 f__mle1-48_OTU_467           1.4e-32    2.8        0.027        0.136
#>  5 o__Micrococcales_OTU_10052   3.6e-31    2.8        0.049        0.246
#>  6 Illumatobacter               1.1e-27    2.4        0.029        0.114
#>  7 c__Actinobacteria_OTU_297    2  e-27    4.4        0.011        0.186
#>  8 o__419_OTU_401               6.7e-27   -5.7        0.133        0.001
#>  9 c__SJA-15_OTU_926            4.4e-26    4.3        0.013        0.16 
#> 10 f__Anaerolineaceae_OTU_1308  4  e-23    3.9        0.008        0.08 
#> # … with 800 more rows
…
